../Core/Src/main.c:64:5:__io_putchar	16	static
../Core/Src/main.c:70:5:_write	32	static
../Core/Src/main.c:82:6:HAL_ADC_ConvCpltCallback	16	static
../Core/Src/main.c:93:5:main	8	static
../Core/Src/main.c:148:6:SystemClock_Config	96	static
../Core/Src/main.c:198:13:MX_ADC1_Init	48	static
../Core/Src/main.c:265:13:MX_TIM4_Init	40	static
../Core/Src/main.c:310:13:MX_USART2_UART_Init	8	static
../Core/Src/main.c:345:13:MX_GPIO_Init	48	static
../Core/Src/main.c:381:6:Error_Handler	4	static,ignoring_inline_asm
