../Core/Src/stm32l4xx_hal_msp.c:63:6:HAL_MspInit	16	static
../Core/Src/stm32l4xx_hal_msp.c:85:6:HAL_ADC_MspInit	184	static
../Core/Src/stm32l4xx_hal_msp.c:139:6:HAL_ADC_MspDeInit	16	static
../Core/Src/stm32l4xx_hal_msp.c:169:6:HAL_TIM_Base_MspInit	24	static
../Core/Src/stm32l4xx_hal_msp.c:191:6:HAL_TIM_Base_MspDeInit	16	static
../Core/Src/stm32l4xx_hal_msp.c:213:6:HAL_UART_MspInit	184	static
../Core/Src/stm32l4xx_hal_msp.c:260:6:HAL_UART_MspDeInit	16	static
